{
  "packages": [
    "commands/*",
    "core/*",
    "utils/*"
  ],
  "command": {
    "create": {
      "homepage": "https://github.com/lerna/lerna",
      "license": "MIT"
    },
    "version": {
      "allowBranch": "master",
      "conventionalCommits": true,
      "exact": true,
      "gitRemote": "upstream",
      "message": "chore(release): %s"
    }
  },
  "ignoreChanges": [
    "**/__fixtures__/**",
    "**/__tests__/**",
    "**/*.md"
  ],
  "version": "3.10.2"
}
